SF Library - Bernal Heights	500 Cortland Ave	94110	Yes	
SF Library - Chinatown	1135 Powell St	94108	Yes	
SF Library - Eureka Valley	1 Jose Sarria Court	94114	Yes	
SF Library - Excelsior	4400 Mission St	94112	Yes	
SF Library - Glen Park	2825 Diamond St	94131	Yes	
SF Library - Golden Gate Valley	1801 Green St	94123	Yes	
SF Library - Ingleside	1298 Ocean Ave	94112	Yes	
SF Library - Main Library	100 Larkin St	94102	Yes	
SF Library - Marina	1890 Chestnut St	94123	Yes	
SF Library - Merced	155 Winston Dr	94132	Yes	
SF Library - Mission	300 Bartlett St	94110	Yes	
SF Library - Mission Bay	960 Fourth St	94158	Yes	
SF Library - Noe Valley	451 Jersey St	94114	Yes	
SF Library - North Beach	2000 Mason St	94133	Yes	
SF Library - Ocean View	345 Randolph St	94132	Yes	
SF Library - Ortega	3223 Ortega St	94122	Yes	
SF Library - Park	1833 Page St	94117	Yes	
SF Library - Parkside	1200 Taraval St	94116	Yes	
SF Library - Portola	380 Bacon St	94134	Yes	
SF Library - Potrero	1616 20th St	94107	Yes	
SF Library - Sunset	1305 18th Ave	94122	Yes	
SF Library - Visiitacion Valley	201 Leland Ave	94134	Yes	
SF Library - West Portal	190 Lenox Way	94127	Yes	
SF Library - Western Addition	1550 Scott St	94115	Yes	
